(['C:\\Desenvolvimento\\SincronizadorAlfa\\SincronizadorAlfameta.py'],
 ['C:\\Desenvolvimento\\SincronizadorAlfa',
  'C:\\Desenvolvimento\\sincronizadoralfa\\Executavel'],
 ['codecs'],
 [],
 [],
 [],
 False,
 False,
 '3.6.5 (v3.6.5:f59c0932b4, Mar 28 2018, 16:07:46) [MSC v.1900 32 bit (Intel)]',
 [('SincronizadorAlfameta',
   'C:\\Desenvolvimento\\SincronizadorAlfa\\SincronizadorAlfameta.py',
   'PYSOURCE')],
 [('calendar',
   'c:\\users\\desenvolvimento\\appdata\\local\\programs\\python\\python36-32\\lib\\calendar.py',
   'PYMODULE'),
  ('_strptime',
   'c:\\users\\desenvolvimento\\appdata\\local\\programs\\python\\python36-32\\lib\\_strptime.py',
   'PYMODULE'),
  ('ntpath',
   'c:\\users\\desenvolvimento\\appdata\\local\\programs\\python\\python36-32\\lib\\ntpath.py',
   'PYMODULE'),
  ('_compression',
   'c:\\users\\desenvolvimento\\appdata\\local\\programs\\python\\python36-32\\lib\\_compression.py',
   'PYMODULE'),
  ('bz2',
   'c:\\users\\desenvolvimento\\appdata\\local\\programs\\python\\python36-32\\lib\\bz2.py',
   'PYMODULE'),
  ('base64',
   'c:\\users\\desenvolvimento\\appdata\\local\\programs\\python\\python36-32\\lib\\base64.py',
   'PYMODULE'),
  ('stringprep',
   'c:\\users\\desenvolvimento\\appdata\\local\\programs\\python\\python36-32\\lib\\stringprep.py',
   'PYMODULE'),
  ('quopri',
   'c:\\users\\desenvolvimento\\appdata\\local\\programs\\python\\python36-32\\lib\\quopri.py',
   'PYMODULE'),
  ('stat',
   'c:\\users\\desenvolvimento\\appdata\\local\\programs\\python\\python36-32\\lib\\stat.py',
   'PYMODULE'),
  ('genericpath',
   'c:\\users\\desenvolvimento\\appdata\\local\\programs\\python\\python36-32\\lib\\genericpath.py',
   'PYMODULE'),
  ('posixpath',
   'c:\\users\\desenvolvimento\\appdata\\local\\programs\\python\\python36-32\\lib\\posixpath.py',
   'PYMODULE'),
  ('fnmatch',
   'c:\\users\\desenvolvimento\\appdata\\local\\programs\\python\\python36-32\\lib\\fnmatch.py',
   'PYMODULE'),
  ('_compat_pickle',
   'c:\\users\\desenvolvimento\\appdata\\local\\programs\\python\\python36-32\\lib\\_compat_pickle.py',
   'PYMODULE'),
  ('__future__',
   'c:\\users\\desenvolvimento\\appdata\\local\\programs\\python\\python36-32\\lib\\__future__.py',
   'PYMODULE'),
  ('difflib',
   'c:\\users\\desenvolvimento\\appdata\\local\\programs\\python\\python36-32\\lib\\difflib.py',
   'PYMODULE'),
  ('ast',
   'c:\\users\\desenvolvimento\\appdata\\local\\programs\\python\\python36-32\\lib\\ast.py',
   'PYMODULE'),
  ('importlib.machinery',
   'c:\\users\\desenvolvimento\\appdata\\local\\programs\\python\\python36-32\\lib\\importlib\\machinery.py',
   'PYMODULE'),
  ('importlib._bootstrap',
   'c:\\users\\desenvolvimento\\appdata\\local\\programs\\python\\python36-32\\lib\\importlib\\_bootstrap.py',
   'PYMODULE'),
  ('importlib._bootstrap_external',
   'c:\\users\\desenvolvimento\\appdata\\local\\programs\\python\\python36-32\\lib\\importlib\\_bootstrap_external.py',
   'PYMODULE'),
  ('importlib',
   'c:\\users\\desenvolvimento\\appdata\\local\\programs\\python\\python36-32\\lib\\importlib\\__init__.py',
   'PYMODULE'),
  ('inspect',
   'c:\\users\\desenvolvimento\\appdata\\local\\programs\\python\\python36-32\\lib\\inspect.py',
   'PYMODULE'),
  ('cmd',
   'c:\\users\\desenvolvimento\\appdata\\local\\programs\\python\\python36-32\\lib\\cmd.py',
   'PYMODULE'),
  ('bdb',
   'c:\\users\\desenvolvimento\\appdata\\local\\programs\\python\\python36-32\\lib\\bdb.py',
   'PYMODULE'),
  ('opcode',
   'c:\\users\\desenvolvimento\\appdata\\local\\programs\\python\\python36-32\\lib\\opcode.py',
   'PYMODULE'),
  ('dis',
   'c:\\users\\desenvolvimento\\appdata\\local\\programs\\python\\python36-32\\lib\\dis.py',
   'PYMODULE'),
  ('codeop',
   'c:\\users\\desenvolvimento\\appdata\\local\\programs\\python\\python36-32\\lib\\codeop.py',
   'PYMODULE'),
  ('code',
   'c:\\users\\desenvolvimento\\appdata\\local\\programs\\python\\python36-32\\lib\\code.py',
   'PYMODULE'),
  ('glob',
   'c:\\users\\desenvolvimento\\appdata\\local\\programs\\python\\python36-32\\lib\\glob.py',
   'PYMODULE'),
  ('shlex',
   'c:\\users\\desenvolvimento\\appdata\\local\\programs\\python\\python36-32\\lib\\shlex.py',
   'PYMODULE'),
  ('getopt',
   'c:\\users\\desenvolvimento\\appdata\\local\\programs\\python\\python36-32\\lib\\getopt.py',
   'PYMODULE'),
  ('pdb',
   'c:\\users\\desenvolvimento\\appdata\\local\\programs\\python\\python36-32\\lib\\pdb.py',
   'PYMODULE'),
  ('unittest.util',
   'c:\\users\\desenvolvimento\\appdata\\local\\programs\\python\\python36-32\\lib\\unittest\\util.py',
   'PYMODULE'),
  ('unittest.result',
   'c:\\users\\desenvolvimento\\appdata\\local\\programs\\python\\python36-32\\lib\\unittest\\result.py',
   'PYMODULE'),
  ('string',
   'c:\\users\\desenvolvimento\\appdata\\local\\programs\\python\\python36-32\\lib\\string.py',
   'PYMODULE'),
  ('logging',
   'c:\\users\\desenvolvimento\\appdata\\local\\programs\\python\\python36-32\\lib\\logging\\__init__.py',
   'PYMODULE'),
  ('unittest.case',
   'c:\\users\\desenvolvimento\\appdata\\local\\programs\\python\\python36-32\\lib\\unittest\\case.py',
   'PYMODULE'),
  ('unittest.suite',
   'c:\\users\\desenvolvimento\\appdata\\local\\programs\\python\\python36-32\\lib\\unittest\\suite.py',
   'PYMODULE'),
  ('unittest.loader',
   'c:\\users\\desenvolvimento\\appdata\\local\\programs\\python\\python36-32\\lib\\unittest\\loader.py',
   'PYMODULE'),
  ('unittest.runner',
   'c:\\users\\desenvolvimento\\appdata\\local\\programs\\python\\python36-32\\lib\\unittest\\runner.py',
   'PYMODULE'),
  ('unittest.main',
   'c:\\users\\desenvolvimento\\appdata\\local\\programs\\python\\python36-32\\lib\\unittest\\main.py',
   'PYMODULE'),
  ('unittest.signals',
   'c:\\users\\desenvolvimento\\appdata\\local\\programs\\python\\python36-32\\lib\\unittest\\signals.py',
   'PYMODULE'),
  ('unittest',
   'c:\\users\\desenvolvimento\\appdata\\local\\programs\\python\\python36-32\\lib\\unittest\\__init__.py',
   'PYMODULE'),
  ('doctest',
   'c:\\users\\desenvolvimento\\appdata\\local\\programs\\python\\python36-32\\lib\\doctest.py',
   'PYMODULE'),
  ('pprint',
   'c:\\users\\desenvolvimento\\appdata\\local\\programs\\python\\python36-32\\lib\\pprint.py',
   'PYMODULE'),
  ('pickle',
   'c:\\users\\desenvolvimento\\appdata\\local\\programs\\python\\python36-32\\lib\\pickle.py',
   'PYMODULE'),
  ('tracemalloc',
   'c:\\users\\desenvolvimento\\appdata\\local\\programs\\python\\python36-32\\lib\\tracemalloc.py',
   'PYMODULE'),
  ('warnings',
   'c:\\users\\desenvolvimento\\appdata\\local\\programs\\python\\python36-32\\lib\\warnings.py',
   'PYMODULE'),
  ('enum',
   'c:\\users\\desenvolvimento\\appdata\\local\\programs\\python\\python36-32\\lib\\enum.py',
   'PYMODULE'),
  ('signal',
   'c:\\users\\desenvolvimento\\appdata\\local\\programs\\python\\python36-32\\lib\\signal.py',
   'PYMODULE'),
  ('contextlib',
   'c:\\users\\desenvolvimento\\appdata\\local\\programs\\python\\python36-32\\lib\\contextlib.py',
   'PYMODULE'),
  ('_threading_local',
   'c:\\users\\desenvolvimento\\appdata\\local\\programs\\python\\python36-32\\lib\\_threading_local.py',
   'PYMODULE'),
  ('threading',
   'c:\\users\\desenvolvimento\\appdata\\local\\programs\\python\\python36-32\\lib\\threading.py',
   'PYMODULE'),
  ('selectors',
   'c:\\users\\desenvolvimento\\appdata\\local\\programs\\python\\python36-32\\lib\\selectors.py',
   'PYMODULE'),
  ('_dummy_thread',
   'c:\\users\\desenvolvimento\\appdata\\local\\programs\\python\\python36-32\\lib\\_dummy_thread.py',
   'PYMODULE'),
  ('dummy_threading',
   'c:\\users\\desenvolvimento\\appdata\\local\\programs\\python\\python36-32\\lib\\dummy_threading.py',
   'PYMODULE'),
  ('subprocess',
   'c:\\users\\desenvolvimento\\appdata\\local\\programs\\python\\python36-32\\lib\\subprocess.py',
   'PYMODULE'),
  ('token',
   'c:\\users\\desenvolvimento\\appdata\\local\\programs\\python\\python36-32\\lib\\token.py',
   'PYMODULE'),
  ('copy',
   'c:\\users\\desenvolvimento\\appdata\\local\\programs\\python\\python36-32\\lib\\copy.py',
   'PYMODULE'),
  ('textwrap',
   'c:\\users\\desenvolvimento\\appdata\\local\\programs\\python\\python36-32\\lib\\textwrap.py',
   'PYMODULE'),
  ('struct',
   'c:\\users\\desenvolvimento\\appdata\\local\\programs\\python\\python36-32\\lib\\struct.py',
   'PYMODULE'),
  ('gettext',
   'c:\\users\\desenvolvimento\\appdata\\local\\programs\\python\\python36-32\\lib\\gettext.py',
   'PYMODULE'),
  ('argparse',
   'c:\\users\\desenvolvimento\\appdata\\local\\programs\\python\\python36-32\\lib\\argparse.py',
   'PYMODULE'),
  ('tokenize',
   'c:\\users\\desenvolvimento\\appdata\\local\\programs\\python\\python36-32\\lib\\tokenize.py',
   'PYMODULE'),
  ('MandaEmails',
   'C:\\Desenvolvimento\\SincronizadorAlfa\\MandaEmails.py',
   'PYMODULE'),
  ('email.mime.multipart',
   'c:\\users\\desenvolvimento\\appdata\\local\\programs\\python\\python36-32\\lib\\email\\mime\\multipart.py',
   'PYMODULE'),
  ('email.mime',
   'c:\\users\\desenvolvimento\\appdata\\local\\programs\\python\\python36-32\\lib\\email\\mime\\__init__.py',
   'PYMODULE'),
  ('email',
   'c:\\users\\desenvolvimento\\appdata\\local\\programs\\python\\python36-32\\lib\\email\\__init__.py',
   'PYMODULE'),
  ('email.parser',
   'c:\\users\\desenvolvimento\\appdata\\local\\programs\\python\\python36-32\\lib\\email\\parser.py',
   'PYMODULE'),
  ('email._policybase',
   'c:\\users\\desenvolvimento\\appdata\\local\\programs\\python\\python36-32\\lib\\email\\_policybase.py',
   'PYMODULE'),
  ('email.utils',
   'c:\\users\\desenvolvimento\\appdata\\local\\programs\\python\\python36-32\\lib\\email\\utils.py',
   'PYMODULE'),
  ('email._parseaddr',
   'c:\\users\\desenvolvimento\\appdata\\local\\programs\\python\\python36-32\\lib\\email\\_parseaddr.py',
   'PYMODULE'),
  ('urllib.parse',
   'c:\\users\\desenvolvimento\\appdata\\local\\programs\\python\\python36-32\\lib\\urllib\\parse.py',
   'PYMODULE'),
  ('urllib',
   'c:\\users\\desenvolvimento\\appdata\\local\\programs\\python\\python36-32\\lib\\urllib\\__init__.py',
   'PYMODULE'),
  ('random',
   'c:\\users\\desenvolvimento\\appdata\\local\\programs\\python\\python36-32\\lib\\random.py',
   'PYMODULE'),
  ('bisect',
   'c:\\users\\desenvolvimento\\appdata\\local\\programs\\python\\python36-32\\lib\\bisect.py',
   'PYMODULE'),
  ('hashlib',
   'c:\\users\\desenvolvimento\\appdata\\local\\programs\\python\\python36-32\\lib\\hashlib.py',
   'PYMODULE'),
  ('email.feedparser',
   'c:\\users\\desenvolvimento\\appdata\\local\\programs\\python\\python36-32\\lib\\email\\feedparser.py',
   'PYMODULE'),
  ('email.message',
   'c:\\users\\desenvolvimento\\appdata\\local\\programs\\python\\python36-32\\lib\\email\\message.py',
   'PYMODULE'),
  ('email.policy',
   'c:\\users\\desenvolvimento\\appdata\\local\\programs\\python\\python36-32\\lib\\email\\policy.py',
   'PYMODULE'),
  ('email.contentmanager',
   'c:\\users\\desenvolvimento\\appdata\\local\\programs\\python\\python36-32\\lib\\email\\contentmanager.py',
   'PYMODULE'),
  ('email.quoprimime',
   'c:\\users\\desenvolvimento\\appdata\\local\\programs\\python\\python36-32\\lib\\email\\quoprimime.py',
   'PYMODULE'),
  ('email.headerregistry',
   'c:\\users\\desenvolvimento\\appdata\\local\\programs\\python\\python36-32\\lib\\email\\headerregistry.py',
   'PYMODULE'),
  ('email.iterators',
   'c:\\users\\desenvolvimento\\appdata\\local\\programs\\python\\python36-32\\lib\\email\\iterators.py',
   'PYMODULE'),
  ('email.generator',
   'c:\\users\\desenvolvimento\\appdata\\local\\programs\\python\\python36-32\\lib\\email\\generator.py',
   'PYMODULE'),
  ('email._encoded_words',
   'c:\\users\\desenvolvimento\\appdata\\local\\programs\\python\\python36-32\\lib\\email\\_encoded_words.py',
   'PYMODULE'),
  ('uu',
   'c:\\users\\desenvolvimento\\appdata\\local\\programs\\python\\python36-32\\lib\\uu.py',
   'PYMODULE'),
  ('optparse',
   'c:\\users\\desenvolvimento\\appdata\\local\\programs\\python\\python36-32\\lib\\optparse.py',
   'PYMODULE'),
  ('email._header_value_parser',
   'c:\\users\\desenvolvimento\\appdata\\local\\programs\\python\\python36-32\\lib\\email\\_header_value_parser.py',
   'PYMODULE'),
  ('email.header',
   'c:\\users\\desenvolvimento\\appdata\\local\\programs\\python\\python36-32\\lib\\email\\header.py',
   'PYMODULE'),
  ('email.base64mime',
   'c:\\users\\desenvolvimento\\appdata\\local\\programs\\python\\python36-32\\lib\\email\\base64mime.py',
   'PYMODULE'),
  ('email.charset',
   'c:\\users\\desenvolvimento\\appdata\\local\\programs\\python\\python36-32\\lib\\email\\charset.py',
   'PYMODULE'),
  ('email.encoders',
   'c:\\users\\desenvolvimento\\appdata\\local\\programs\\python\\python36-32\\lib\\email\\encoders.py',
   'PYMODULE'),
  ('email.errors',
   'c:\\users\\desenvolvimento\\appdata\\local\\programs\\python\\python36-32\\lib\\email\\errors.py',
   'PYMODULE'),
  ('email.mime.base',
   'c:\\users\\desenvolvimento\\appdata\\local\\programs\\python\\python36-32\\lib\\email\\mime\\base.py',
   'PYMODULE'),
  ('email.mime.text',
   'c:\\users\\desenvolvimento\\appdata\\local\\programs\\python\\python36-32\\lib\\email\\mime\\text.py',
   'PYMODULE'),
  ('email.mime.nonmultipart',
   'c:\\users\\desenvolvimento\\appdata\\local\\programs\\python\\python36-32\\lib\\email\\mime\\nonmultipart.py',
   'PYMODULE'),
  ('socket',
   'c:\\users\\desenvolvimento\\appdata\\local\\programs\\python\\python36-32\\lib\\socket.py',
   'PYMODULE'),
  ('smtplib',
   'c:\\users\\desenvolvimento\\appdata\\local\\programs\\python\\python36-32\\lib\\smtplib.py',
   'PYMODULE'),
  ('ssl',
   'c:\\users\\desenvolvimento\\appdata\\local\\programs\\python\\python36-32\\lib\\ssl.py',
   'PYMODULE'),
  ('ipaddress',
   'c:\\users\\desenvolvimento\\appdata\\local\\programs\\python\\python36-32\\lib\\ipaddress.py',
   'PYMODULE'),
  ('hmac',
   'c:\\users\\desenvolvimento\\appdata\\local\\programs\\python\\python36-32\\lib\\hmac.py',
   'PYMODULE'),
  ('GeraLogs',
   'C:\\Desenvolvimento\\SincronizadorAlfa\\GeraLogs.py',
   'PYMODULE'),
  ('LeArquivoIni',
   'C:\\Desenvolvimento\\SincronizadorAlfa\\LeArquivoIni.py',
   'PYMODULE'),
  ('configparser',
   'c:\\users\\desenvolvimento\\appdata\\local\\programs\\python\\python36-32\\lib\\configparser.py',
   'PYMODULE'),
  ('os',
   'c:\\users\\desenvolvimento\\appdata\\local\\programs\\python\\python36-32\\lib\\os.py',
   'PYMODULE'),
  ('datetime',
   'c:\\users\\desenvolvimento\\appdata\\local\\programs\\python\\python36-32\\lib\\datetime.py',
   'PYMODULE')],
 [('VCRUNTIME140.dll',
   'c:\\users\\desenvolvimento\\appdata\\local\\programs\\python\\python36-32\\VCRUNTIME140.dll',
   'BINARY'),
  ('api-ms-win-crt-locale-l1-1-0.dll',
   'c:\\users\\desenvolvimento\\appdata\\local\\programs\\python\\python36-32\\api-ms-win-crt-locale-l1-1-0.dll',
   'BINARY'),
  ('api-ms-win-crt-heap-l1-1-0.dll',
   'c:\\users\\desenvolvimento\\appdata\\local\\programs\\python\\python36-32\\api-ms-win-crt-heap-l1-1-0.dll',
   'BINARY'),
  ('python36.dll',
   'c:\\users\\desenvolvimento\\appdata\\local\\programs\\python\\python36-32\\python36.dll',
   'BINARY'),
  ('api-ms-win-crt-math-l1-1-0.dll',
   'c:\\users\\desenvolvimento\\appdata\\local\\programs\\python\\python36-32\\api-ms-win-crt-math-l1-1-0.dll',
   'BINARY'),
  ('api-ms-win-crt-stdio-l1-1-0.dll',
   'c:\\users\\desenvolvimento\\appdata\\local\\programs\\python\\python36-32\\api-ms-win-crt-stdio-l1-1-0.dll',
   'BINARY'),
  ('api-ms-win-crt-runtime-l1-1-0.dll',
   'c:\\users\\desenvolvimento\\appdata\\local\\programs\\python\\python36-32\\api-ms-win-crt-runtime-l1-1-0.dll',
   'BINARY'),
  ('api-ms-win-crt-convert-l1-1-0.dll',
   'c:\\users\\desenvolvimento\\appdata\\local\\programs\\python\\python36-32\\api-ms-win-crt-convert-l1-1-0.dll',
   'BINARY'),
  ('api-ms-win-crt-string-l1-1-0.dll',
   'c:\\users\\desenvolvimento\\appdata\\local\\programs\\python\\python36-32\\api-ms-win-crt-string-l1-1-0.dll',
   'BINARY'),
  ('ucrtbase.dll', 'C:\\Windows\\system32\\ucrtbase.dll', 'BINARY'),
  ('api-ms-win-crt-time-l1-1-0.dll',
   'c:\\users\\desenvolvimento\\appdata\\local\\programs\\python\\python36-32\\api-ms-win-crt-time-l1-1-0.dll',
   'BINARY'),
  ('api-ms-win-crt-conio-l1-1-0.dll',
   'c:\\users\\desenvolvimento\\appdata\\local\\programs\\python\\python36-32\\api-ms-win-crt-conio-l1-1-0.dll',
   'BINARY'),
  ('api-ms-win-crt-filesystem-l1-1-0.dll',
   'c:\\users\\desenvolvimento\\appdata\\local\\programs\\python\\python36-32\\api-ms-win-crt-filesystem-l1-1-0.dll',
   'BINARY'),
  ('api-ms-win-crt-process-l1-1-0.dll',
   'c:\\users\\desenvolvimento\\appdata\\local\\programs\\python\\python36-32\\api-ms-win-crt-process-l1-1-0.dll',
   'BINARY'),
  ('api-ms-win-crt-environment-l1-1-0.dll',
   'c:\\users\\desenvolvimento\\appdata\\local\\programs\\python\\python36-32\\api-ms-win-crt-environment-l1-1-0.dll',
   'BINARY'),
  ('api-ms-win-core-file-l1-2-0.dll',
   'C:\\Users\\Desenvolvimento\\AppData\\Local\\Programs\\Python\\Python36-32\\Scripts\\api-ms-win-core-file-l1-2-0.dll',
   'BINARY'),
  ('api-ms-win-core-profile-l1-1-0.dll',
   'C:\\Users\\Desenvolvimento\\AppData\\Local\\Programs\\Python\\Python36-32\\Scripts\\api-ms-win-core-profile-l1-1-0.dll',
   'BINARY'),
  ('api-ms-win-core-synch-l1-1-0.dll',
   'C:\\Users\\Desenvolvimento\\AppData\\Local\\Programs\\Python\\Python36-32\\Scripts\\api-ms-win-core-synch-l1-1-0.dll',
   'BINARY'),
  ('api-ms-win-core-errorhandling-l1-1-0.dll',
   'C:\\Users\\Desenvolvimento\\AppData\\Local\\Programs\\Python\\Python36-32\\Scripts\\api-ms-win-core-errorhandling-l1-1-0.dll',
   'BINARY'),
  ('api-ms-win-core-file-l2-1-0.dll',
   'C:\\Users\\Desenvolvimento\\AppData\\Local\\Programs\\Python\\Python36-32\\Scripts\\api-ms-win-core-file-l2-1-0.dll',
   'BINARY'),
  ('api-ms-win-core-file-l1-1-0.dll',
   'C:\\Users\\Desenvolvimento\\AppData\\Local\\Programs\\Python\\Python36-32\\Scripts\\api-ms-win-core-file-l1-1-0.dll',
   'BINARY'),
  ('api-ms-win-core-datetime-l1-1-0.dll',
   'C:\\Users\\Desenvolvimento\\AppData\\Local\\Programs\\Python\\Python36-32\\Scripts\\api-ms-win-core-datetime-l1-1-0.dll',
   'BINARY'),
  ('api-ms-win-core-localization-l1-2-0.dll',
   'C:\\Users\\Desenvolvimento\\AppData\\Local\\Programs\\Python\\Python36-32\\Scripts\\api-ms-win-core-localization-l1-2-0.dll',
   'BINARY'),
  ('api-ms-win-core-synch-l1-2-0.dll',
   'C:\\Users\\Desenvolvimento\\AppData\\Local\\Programs\\Python\\Python36-32\\Scripts\\api-ms-win-core-synch-l1-2-0.dll',
   'BINARY'),
  ('api-ms-win-core-interlocked-l1-1-0.dll',
   'C:\\Users\\Desenvolvimento\\AppData\\Local\\Programs\\Python\\Python36-32\\Scripts\\api-ms-win-core-interlocked-l1-1-0.dll',
   'BINARY'),
  ('api-ms-win-core-processthreads-l1-1-0.dll',
   'C:\\Users\\Desenvolvimento\\AppData\\Local\\Programs\\Python\\Python36-32\\Scripts\\api-ms-win-core-processthreads-l1-1-0.dll',
   'BINARY'),
  ('api-ms-win-core-sysinfo-l1-1-0.dll',
   'C:\\Users\\Desenvolvimento\\AppData\\Local\\Programs\\Python\\Python36-32\\Scripts\\api-ms-win-core-sysinfo-l1-1-0.dll',
   'BINARY'),
  ('api-ms-win-core-namedpipe-l1-1-0.dll',
   'C:\\Users\\Desenvolvimento\\AppData\\Local\\Programs\\Python\\Python36-32\\Scripts\\api-ms-win-core-namedpipe-l1-1-0.dll',
   'BINARY'),
  ('api-ms-win-core-libraryloader-l1-1-0.dll',
   'C:\\Users\\Desenvolvimento\\AppData\\Local\\Programs\\Python\\Python36-32\\Scripts\\api-ms-win-core-libraryloader-l1-1-0.dll',
   'BINARY'),
  ('api-ms-win-core-heap-l1-1-0.dll',
   'C:\\Users\\Desenvolvimento\\AppData\\Local\\Programs\\Python\\Python36-32\\Scripts\\api-ms-win-core-heap-l1-1-0.dll',
   'BINARY'),
  ('api-ms-win-core-console-l1-1-0.dll',
   'C:\\Users\\Desenvolvimento\\AppData\\Local\\Programs\\Python\\Python36-32\\Scripts\\api-ms-win-core-console-l1-1-0.dll',
   'BINARY'),
  ('api-ms-win-core-string-l1-1-0.dll',
   'C:\\Users\\Desenvolvimento\\AppData\\Local\\Programs\\Python\\Python36-32\\Scripts\\api-ms-win-core-string-l1-1-0.dll',
   'BINARY'),
  ('api-ms-win-core-rtlsupport-l1-1-0.dll',
   'C:\\Users\\Desenvolvimento\\AppData\\Local\\Programs\\Python\\Python36-32\\Scripts\\api-ms-win-core-rtlsupport-l1-1-0.dll',
   'BINARY'),
  ('api-ms-win-core-timezone-l1-1-0.dll',
   'C:\\Users\\Desenvolvimento\\AppData\\Local\\Programs\\Python\\Python36-32\\Scripts\\api-ms-win-core-timezone-l1-1-0.dll',
   'BINARY'),
  ('api-ms-win-core-memory-l1-1-0.dll',
   'C:\\Users\\Desenvolvimento\\AppData\\Local\\Programs\\Python\\Python36-32\\Scripts\\api-ms-win-core-memory-l1-1-0.dll',
   'BINARY'),
  ('api-ms-win-core-util-l1-1-0.dll',
   'C:\\Users\\Desenvolvimento\\AppData\\Local\\Programs\\Python\\Python36-32\\Scripts\\api-ms-win-core-util-l1-1-0.dll',
   'BINARY'),
  ('api-ms-win-core-handle-l1-1-0.dll',
   'C:\\Users\\Desenvolvimento\\AppData\\Local\\Programs\\Python\\Python36-32\\Scripts\\api-ms-win-core-handle-l1-1-0.dll',
   'BINARY'),
  ('api-ms-win-core-processenvironment-l1-1-0.dll',
   'C:\\Users\\Desenvolvimento\\AppData\\Local\\Programs\\Python\\Python36-32\\Scripts\\api-ms-win-core-processenvironment-l1-1-0.dll',
   'BINARY'),
  ('api-ms-win-core-debug-l1-1-0.dll',
   'C:\\Users\\Desenvolvimento\\AppData\\Local\\Programs\\Python\\Python36-32\\Scripts\\api-ms-win-core-debug-l1-1-0.dll',
   'BINARY'),
  ('api-ms-win-core-processthreads-l1-1-1.dll',
   'C:\\Users\\Desenvolvimento\\AppData\\Local\\Programs\\Python\\Python36-32\\Scripts\\api-ms-win-core-processthreads-l1-1-1.dll',
   'BINARY'),
  ('_bz2',
   'c:\\users\\desenvolvimento\\appdata\\local\\programs\\python\\python36-32\\DLLs\\_bz2.pyd',
   'EXTENSION'),
  ('unicodedata',
   'c:\\users\\desenvolvimento\\appdata\\local\\programs\\python\\python36-32\\DLLs\\unicodedata.pyd',
   'EXTENSION'),
  ('select',
   'c:\\users\\desenvolvimento\\appdata\\local\\programs\\python\\python36-32\\DLLs\\select.pyd',
   'EXTENSION'),
  ('_hashlib',
   'c:\\users\\desenvolvimento\\appdata\\local\\programs\\python\\python36-32\\DLLs\\_hashlib.pyd',
   'EXTENSION'),
  ('_socket',
   'c:\\users\\desenvolvimento\\appdata\\local\\programs\\python\\python36-32\\DLLs\\_socket.pyd',
   'EXTENSION'),
  ('_ssl',
   'c:\\users\\desenvolvimento\\appdata\\local\\programs\\python\\python36-32\\DLLs\\_ssl.pyd',
   'EXTENSION'),
  ('pyodbc',
   'c:\\users\\desenvolvimento\\appdata\\local\\programs\\python\\python36-32\\lib\\site-packages\\pyodbc.cp36-win32.pyd',
   'EXTENSION'),
  ('api-ms-win-crt-utility-l1-1-0.dll',
   'C:\\Users\\Desenvolvimento\\AppData\\Local\\Programs\\Python\\Python36-32\\Scripts\\api-ms-win-crt-utility-l1-1-0.dll',
   'BINARY')],
 [],
 [],
 [('base_library.zip',
   'C:\\Desenvolvimento\\sincronizadoralfa\\Executavel\\build\\SincronizadorAlfameta\\base_library.zip',
   'DATA')],
 [])
