('C:\\Desenvolvimento\\sincronizadoralfa\\Executavel\\dist\\SincronizadorAlfameta.exe',
 False,
 False,
 False,
 'C:\\Desenvolvimento\\SincronizadorAlfa\\iconeSincronizador.ico',
 None,
 False,
 False,
 '<?xml version="1.0" encoding="UTF-8" standalone="yes"?><assembly manifestVersion="1.0" xmlns="urn:schemas-microsoft-com:asm.v1"><assemblyIdentity name="SincronizadorAlfameta" processorArchitecture="x86" type="win32" version="1.0.0.0"/><dependency><dependentAssembly><assemblyIdentity language="*" name="Microsoft.Windows.Common-Controls" processorArchitecture="*" publicKeyToken="6595b64144ccf1df" type="win32" version="6.0.0.0"/><compatibility xmlns="urn:schemas-microsoft-com:compatibility.v1"/></dependentAssembly></dependency><compatibility xmlns="urn:schemas-microsoft-com:compatibility.v1"><application><supportedOS Id="{e2011457-1546-43c5-a5fe-008deee3d3f0}"/><supportedOS Id="{35138b9a-5d96-4fbd-8e2d-a2440225f93a}"/><supportedOS Id="{4a2f28e3-53b9-4441-ba9c-d69d4a4a6e38}"/><supportedOS Id="{1f676c76-80e1-4239-95bb-83d0f6d0da78}"/><supportedOS Id="{8e0f7a12-bfb3-4fe8-b9a5-48fd50a15a9a}"/></application></compatibility></assembly>',
 True,
 'SincronizadorAlfameta.pkg',
 [('out00-PYZ.pyz',
   'C:\\Desenvolvimento\\sincronizadoralfa\\Executavel\\build\\SincronizadorAlfameta\\out00-PYZ.pyz',
   'PYZ'),
  ('struct',
   'c:\\users\\desenvolvimento\\appdata\\local\\programs\\python\\python36-32\\lib\\struct.pyo',
   'PYMODULE'),
  ('pyimod01_os_path',
   'c:\\users\\desenvolvimento\\appdata\\local\\programs\\python\\python36-32\\lib\\site-packages\\PyInstaller\\loader\\pyimod01_os_path.pyc',
   'PYMODULE'),
  ('pyimod02_archive',
   'c:\\users\\desenvolvimento\\appdata\\local\\programs\\python\\python36-32\\lib\\site-packages\\PyInstaller\\loader\\pyimod02_archive.pyc',
   'PYMODULE'),
  ('pyimod03_importers',
   'c:\\users\\desenvolvimento\\appdata\\local\\programs\\python\\python36-32\\lib\\site-packages\\PyInstaller\\loader\\pyimod03_importers.pyc',
   'PYMODULE'),
  ('pyiboot01_bootstrap',
   'c:\\users\\desenvolvimento\\appdata\\local\\programs\\python\\python36-32\\lib\\site-packages\\PyInstaller\\loader\\pyiboot01_bootstrap.py',
   'PYSOURCE'),
  ('SincronizadorAlfameta',
   'C:\\Desenvolvimento\\SincronizadorAlfa\\SincronizadorAlfameta.py',
   'PYSOURCE'),
  ('VCRUNTIME140.dll',
   'c:\\users\\desenvolvimento\\appdata\\local\\programs\\python\\python36-32\\VCRUNTIME140.dll',
   'BINARY'),
  ('api-ms-win-crt-locale-l1-1-0.dll',
   'c:\\users\\desenvolvimento\\appdata\\local\\programs\\python\\python36-32\\api-ms-win-crt-locale-l1-1-0.dll',
   'BINARY'),
  ('api-ms-win-crt-heap-l1-1-0.dll',
   'c:\\users\\desenvolvimento\\appdata\\local\\programs\\python\\python36-32\\api-ms-win-crt-heap-l1-1-0.dll',
   'BINARY'),
  ('python36.dll',
   'c:\\users\\desenvolvimento\\appdata\\local\\programs\\python\\python36-32\\python36.dll',
   'BINARY'),
  ('api-ms-win-crt-math-l1-1-0.dll',
   'c:\\users\\desenvolvimento\\appdata\\local\\programs\\python\\python36-32\\api-ms-win-crt-math-l1-1-0.dll',
   'BINARY'),
  ('api-ms-win-crt-stdio-l1-1-0.dll',
   'c:\\users\\desenvolvimento\\appdata\\local\\programs\\python\\python36-32\\api-ms-win-crt-stdio-l1-1-0.dll',
   'BINARY'),
  ('api-ms-win-crt-runtime-l1-1-0.dll',
   'c:\\users\\desenvolvimento\\appdata\\local\\programs\\python\\python36-32\\api-ms-win-crt-runtime-l1-1-0.dll',
   'BINARY'),
  ('api-ms-win-crt-convert-l1-1-0.dll',
   'c:\\users\\desenvolvimento\\appdata\\local\\programs\\python\\python36-32\\api-ms-win-crt-convert-l1-1-0.dll',
   'BINARY'),
  ('api-ms-win-crt-string-l1-1-0.dll',
   'c:\\users\\desenvolvimento\\appdata\\local\\programs\\python\\python36-32\\api-ms-win-crt-string-l1-1-0.dll',
   'BINARY'),
  ('ucrtbase.dll', 'C:\\Windows\\system32\\ucrtbase.dll', 'BINARY'),
  ('api-ms-win-crt-time-l1-1-0.dll',
   'c:\\users\\desenvolvimento\\appdata\\local\\programs\\python\\python36-32\\api-ms-win-crt-time-l1-1-0.dll',
   'BINARY'),
  ('api-ms-win-crt-conio-l1-1-0.dll',
   'c:\\users\\desenvolvimento\\appdata\\local\\programs\\python\\python36-32\\api-ms-win-crt-conio-l1-1-0.dll',
   'BINARY'),
  ('api-ms-win-crt-filesystem-l1-1-0.dll',
   'c:\\users\\desenvolvimento\\appdata\\local\\programs\\python\\python36-32\\api-ms-win-crt-filesystem-l1-1-0.dll',
   'BINARY'),
  ('api-ms-win-crt-process-l1-1-0.dll',
   'c:\\users\\desenvolvimento\\appdata\\local\\programs\\python\\python36-32\\api-ms-win-crt-process-l1-1-0.dll',
   'BINARY'),
  ('api-ms-win-crt-environment-l1-1-0.dll',
   'c:\\users\\desenvolvimento\\appdata\\local\\programs\\python\\python36-32\\api-ms-win-crt-environment-l1-1-0.dll',
   'BINARY'),
  ('api-ms-win-core-file-l1-2-0.dll',
   'C:\\Users\\Desenvolvimento\\AppData\\Local\\Programs\\Python\\Python36-32\\Scripts\\api-ms-win-core-file-l1-2-0.dll',
   'BINARY'),
  ('api-ms-win-core-profile-l1-1-0.dll',
   'C:\\Users\\Desenvolvimento\\AppData\\Local\\Programs\\Python\\Python36-32\\Scripts\\api-ms-win-core-profile-l1-1-0.dll',
   'BINARY'),
  ('api-ms-win-core-synch-l1-1-0.dll',
   'C:\\Users\\Desenvolvimento\\AppData\\Local\\Programs\\Python\\Python36-32\\Scripts\\api-ms-win-core-synch-l1-1-0.dll',
   'BINARY'),
  ('api-ms-win-core-errorhandling-l1-1-0.dll',
   'C:\\Users\\Desenvolvimento\\AppData\\Local\\Programs\\Python\\Python36-32\\Scripts\\api-ms-win-core-errorhandling-l1-1-0.dll',
   'BINARY'),
  ('api-ms-win-core-file-l2-1-0.dll',
   'C:\\Users\\Desenvolvimento\\AppData\\Local\\Programs\\Python\\Python36-32\\Scripts\\api-ms-win-core-file-l2-1-0.dll',
   'BINARY'),
  ('api-ms-win-core-file-l1-1-0.dll',
   'C:\\Users\\Desenvolvimento\\AppData\\Local\\Programs\\Python\\Python36-32\\Scripts\\api-ms-win-core-file-l1-1-0.dll',
   'BINARY'),
  ('api-ms-win-core-datetime-l1-1-0.dll',
   'C:\\Users\\Desenvolvimento\\AppData\\Local\\Programs\\Python\\Python36-32\\Scripts\\api-ms-win-core-datetime-l1-1-0.dll',
   'BINARY'),
  ('api-ms-win-core-localization-l1-2-0.dll',
   'C:\\Users\\Desenvolvimento\\AppData\\Local\\Programs\\Python\\Python36-32\\Scripts\\api-ms-win-core-localization-l1-2-0.dll',
   'BINARY'),
  ('api-ms-win-core-synch-l1-2-0.dll',
   'C:\\Users\\Desenvolvimento\\AppData\\Local\\Programs\\Python\\Python36-32\\Scripts\\api-ms-win-core-synch-l1-2-0.dll',
   'BINARY'),
  ('api-ms-win-core-interlocked-l1-1-0.dll',
   'C:\\Users\\Desenvolvimento\\AppData\\Local\\Programs\\Python\\Python36-32\\Scripts\\api-ms-win-core-interlocked-l1-1-0.dll',
   'BINARY'),
  ('api-ms-win-core-processthreads-l1-1-0.dll',
   'C:\\Users\\Desenvolvimento\\AppData\\Local\\Programs\\Python\\Python36-32\\Scripts\\api-ms-win-core-processthreads-l1-1-0.dll',
   'BINARY'),
  ('api-ms-win-core-sysinfo-l1-1-0.dll',
   'C:\\Users\\Desenvolvimento\\AppData\\Local\\Programs\\Python\\Python36-32\\Scripts\\api-ms-win-core-sysinfo-l1-1-0.dll',
   'BINARY'),
  ('api-ms-win-core-namedpipe-l1-1-0.dll',
   'C:\\Users\\Desenvolvimento\\AppData\\Local\\Programs\\Python\\Python36-32\\Scripts\\api-ms-win-core-namedpipe-l1-1-0.dll',
   'BINARY'),
  ('api-ms-win-core-libraryloader-l1-1-0.dll',
   'C:\\Users\\Desenvolvimento\\AppData\\Local\\Programs\\Python\\Python36-32\\Scripts\\api-ms-win-core-libraryloader-l1-1-0.dll',
   'BINARY'),
  ('api-ms-win-core-heap-l1-1-0.dll',
   'C:\\Users\\Desenvolvimento\\AppData\\Local\\Programs\\Python\\Python36-32\\Scripts\\api-ms-win-core-heap-l1-1-0.dll',
   'BINARY'),
  ('api-ms-win-core-console-l1-1-0.dll',
   'C:\\Users\\Desenvolvimento\\AppData\\Local\\Programs\\Python\\Python36-32\\Scripts\\api-ms-win-core-console-l1-1-0.dll',
   'BINARY'),
  ('api-ms-win-core-string-l1-1-0.dll',
   'C:\\Users\\Desenvolvimento\\AppData\\Local\\Programs\\Python\\Python36-32\\Scripts\\api-ms-win-core-string-l1-1-0.dll',
   'BINARY'),
  ('api-ms-win-core-rtlsupport-l1-1-0.dll',
   'C:\\Users\\Desenvolvimento\\AppData\\Local\\Programs\\Python\\Python36-32\\Scripts\\api-ms-win-core-rtlsupport-l1-1-0.dll',
   'BINARY'),
  ('api-ms-win-core-timezone-l1-1-0.dll',
   'C:\\Users\\Desenvolvimento\\AppData\\Local\\Programs\\Python\\Python36-32\\Scripts\\api-ms-win-core-timezone-l1-1-0.dll',
   'BINARY'),
  ('api-ms-win-core-memory-l1-1-0.dll',
   'C:\\Users\\Desenvolvimento\\AppData\\Local\\Programs\\Python\\Python36-32\\Scripts\\api-ms-win-core-memory-l1-1-0.dll',
   'BINARY'),
  ('api-ms-win-core-util-l1-1-0.dll',
   'C:\\Users\\Desenvolvimento\\AppData\\Local\\Programs\\Python\\Python36-32\\Scripts\\api-ms-win-core-util-l1-1-0.dll',
   'BINARY'),
  ('api-ms-win-core-handle-l1-1-0.dll',
   'C:\\Users\\Desenvolvimento\\AppData\\Local\\Programs\\Python\\Python36-32\\Scripts\\api-ms-win-core-handle-l1-1-0.dll',
   'BINARY'),
  ('api-ms-win-core-processenvironment-l1-1-0.dll',
   'C:\\Users\\Desenvolvimento\\AppData\\Local\\Programs\\Python\\Python36-32\\Scripts\\api-ms-win-core-processenvironment-l1-1-0.dll',
   'BINARY'),
  ('api-ms-win-core-debug-l1-1-0.dll',
   'C:\\Users\\Desenvolvimento\\AppData\\Local\\Programs\\Python\\Python36-32\\Scripts\\api-ms-win-core-debug-l1-1-0.dll',
   'BINARY'),
  ('api-ms-win-core-processthreads-l1-1-1.dll',
   'C:\\Users\\Desenvolvimento\\AppData\\Local\\Programs\\Python\\Python36-32\\Scripts\\api-ms-win-core-processthreads-l1-1-1.dll',
   'BINARY'),
  ('_bz2',
   'c:\\users\\desenvolvimento\\appdata\\local\\programs\\python\\python36-32\\DLLs\\_bz2.pyd',
   'EXTENSION'),
  ('unicodedata',
   'c:\\users\\desenvolvimento\\appdata\\local\\programs\\python\\python36-32\\DLLs\\unicodedata.pyd',
   'EXTENSION'),
  ('select',
   'c:\\users\\desenvolvimento\\appdata\\local\\programs\\python\\python36-32\\DLLs\\select.pyd',
   'EXTENSION'),
  ('_hashlib',
   'c:\\users\\desenvolvimento\\appdata\\local\\programs\\python\\python36-32\\DLLs\\_hashlib.pyd',
   'EXTENSION'),
  ('_socket',
   'c:\\users\\desenvolvimento\\appdata\\local\\programs\\python\\python36-32\\DLLs\\_socket.pyd',
   'EXTENSION'),
  ('_ssl',
   'c:\\users\\desenvolvimento\\appdata\\local\\programs\\python\\python36-32\\DLLs\\_ssl.pyd',
   'EXTENSION'),
  ('pyodbc',
   'c:\\users\\desenvolvimento\\appdata\\local\\programs\\python\\python36-32\\lib\\site-packages\\pyodbc.cp36-win32.pyd',
   'EXTENSION'),
  ('api-ms-win-crt-utility-l1-1-0.dll',
   'C:\\Users\\Desenvolvimento\\AppData\\Local\\Programs\\Python\\Python36-32\\Scripts\\api-ms-win-crt-utility-l1-1-0.dll',
   'BINARY'),
  ('base_library.zip',
   'C:\\Desenvolvimento\\sincronizadoralfa\\Executavel\\build\\SincronizadorAlfameta\\base_library.zip',
   'DATA'),
  ('SincronizadorAlfameta.exe.manifest',
   'C:\\Desenvolvimento\\sincronizadoralfa\\Executavel\\build\\SincronizadorAlfameta\\SincronizadorAlfameta.exe.manifest',
   'BINARY'),
  ('pyi-windows-manifest-filename SincronizadorAlfameta.exe.manifest',
   '',
   'OPTION')],
 [],
 False,
 False,
 1535460710,
 [('runw.exe',
   'c:\\users\\desenvolvimento\\appdata\\local\\programs\\python\\python36-32\\lib\\site-packages\\PyInstaller\\bootloader\\Windows-32bit\\runw.exe',
   'EXECUTABLE')])
