('C:\\Desenvolvimento\\sincronizadoralfa\\Executavel\\build\\SincronizadorAlfameta\\out00-PKG.pkg',
 {'BINARY': 1,
  'DATA': 1,
  'EXECUTABLE': 1,
  'EXTENSION': 1,
  'PYMODULE': 1,
  'PYSOURCE': 1,
  'PYZ': 0},
 [('out00-PYZ.pyz',
   'C:\\Desenvolvimento\\sincronizadoralfa\\Executavel\\build\\SincronizadorAlfameta\\out00-PYZ.pyz',
   'PYZ'),
  ('struct',
   'c:\\users\\desenvolvimento\\appdata\\local\\programs\\python\\python36-32\\lib\\struct.pyo',
   'PYMODULE'),
  ('pyimod01_os_path',
   'c:\\users\\desenvolvimento\\appdata\\local\\programs\\python\\python36-32\\lib\\site-packages\\PyInstaller\\loader\\pyimod01_os_path.pyc',
   'PYMODULE'),
  ('pyimod02_archive',
   'c:\\users\\desenvolvimento\\appdata\\local\\programs\\python\\python36-32\\lib\\site-packages\\PyInstaller\\loader\\pyimod02_archive.pyc',
   'PYMODULE'),
  ('pyimod03_importers',
   'c:\\users\\desenvolvimento\\appdata\\local\\programs\\python\\python36-32\\lib\\site-packages\\PyInstaller\\loader\\pyimod03_importers.pyc',
   'PYMODULE'),
  ('pyiboot01_bootstrap',
   'c:\\users\\desenvolvimento\\appdata\\local\\programs\\python\\python36-32\\lib\\site-packages\\PyInstaller\\loader\\pyiboot01_bootstrap.py',
   'PYSOURCE'),
  ('SincronizadorAlfameta',
   'C:\\Desenvolvimento\\SincronizadorAlfa\\SincronizadorAlfameta.py',
   'PYSOURCE'),
  ('api-ms-win-crt-locale-l1-1-0.dll',
   'c:\\users\\desenvolvimento\\appdata\\local\\programs\\python\\python36-32\\api-ms-win-crt-locale-l1-1-0.dll',
   'BINARY'),
  ('VCRUNTIME140.dll',
   'c:\\users\\desenvolvimento\\appdata\\local\\programs\\python\\python36-32\\VCRUNTIME140.dll',
   'BINARY'),
  ('api-ms-win-crt-runtime-l1-1-0.dll',
   'c:\\users\\desenvolvimento\\appdata\\local\\programs\\python\\python36-32\\api-ms-win-crt-runtime-l1-1-0.dll',
   'BINARY'),
  ('python36.dll',
   'c:\\users\\desenvolvimento\\appdata\\local\\programs\\python\\python36-32\\python36.dll',
   'BINARY'),
  ('api-ms-win-crt-math-l1-1-0.dll',
   'c:\\users\\desenvolvimento\\appdata\\local\\programs\\python\\python36-32\\api-ms-win-crt-math-l1-1-0.dll',
   'BINARY'),
  ('api-ms-win-crt-heap-l1-1-0.dll',
   'c:\\users\\desenvolvimento\\appdata\\local\\programs\\python\\python36-32\\api-ms-win-crt-heap-l1-1-0.dll',
   'BINARY'),
  ('api-ms-win-crt-stdio-l1-1-0.dll',
   'c:\\users\\desenvolvimento\\appdata\\local\\programs\\python\\python36-32\\api-ms-win-crt-stdio-l1-1-0.dll',
   'BINARY'),
  ('ucrtbase.dll', 'C:\\Windows\\system32\\ucrtbase.dll', 'BINARY'),
  ('api-ms-win-crt-convert-l1-1-0.dll',
   'c:\\users\\desenvolvimento\\appdata\\local\\programs\\python\\python36-32\\api-ms-win-crt-convert-l1-1-0.dll',
   'BINARY'),
  ('api-ms-win-crt-string-l1-1-0.dll',
   'c:\\users\\desenvolvimento\\appdata\\local\\programs\\python\\python36-32\\api-ms-win-crt-string-l1-1-0.dll',
   'BINARY'),
  ('api-ms-win-crt-filesystem-l1-1-0.dll',
   'c:\\users\\desenvolvimento\\appdata\\local\\programs\\python\\python36-32\\api-ms-win-crt-filesystem-l1-1-0.dll',
   'BINARY'),
  ('api-ms-win-crt-process-l1-1-0.dll',
   'c:\\users\\desenvolvimento\\appdata\\local\\programs\\python\\python36-32\\api-ms-win-crt-process-l1-1-0.dll',
   'BINARY'),
  ('api-ms-win-crt-environment-l1-1-0.dll',
   'c:\\users\\desenvolvimento\\appdata\\local\\programs\\python\\python36-32\\api-ms-win-crt-environment-l1-1-0.dll',
   'BINARY'),
  ('api-ms-win-crt-conio-l1-1-0.dll',
   'c:\\users\\desenvolvimento\\appdata\\local\\programs\\python\\python36-32\\api-ms-win-crt-conio-l1-1-0.dll',
   'BINARY'),
  ('api-ms-win-crt-time-l1-1-0.dll',
   'c:\\users\\desenvolvimento\\appdata\\local\\programs\\python\\python36-32\\api-ms-win-crt-time-l1-1-0.dll',
   'BINARY'),
  ('api-ms-win-core-datetime-l1-1-0.dll',
   'C:\\Users\\Desenvolvimento\\AppData\\Local\\Programs\\Python\\Python36-32\\Scripts\\api-ms-win-core-datetime-l1-1-0.dll',
   'BINARY'),
  ('api-ms-win-core-errorhandling-l1-1-0.dll',
   'C:\\Users\\Desenvolvimento\\AppData\\Local\\Programs\\Python\\Python36-32\\Scripts\\api-ms-win-core-errorhandling-l1-1-0.dll',
   'BINARY'),
  ('api-ms-win-core-debug-l1-1-0.dll',
   'C:\\Users\\Desenvolvimento\\AppData\\Local\\Programs\\Python\\Python36-32\\Scripts\\api-ms-win-core-debug-l1-1-0.dll',
   'BINARY'),
  ('api-ms-win-core-console-l1-1-0.dll',
   'C:\\Users\\Desenvolvimento\\AppData\\Local\\Programs\\Python\\Python36-32\\Scripts\\api-ms-win-core-console-l1-1-0.dll',
   'BINARY'),
  ('api-ms-win-core-string-l1-1-0.dll',
   'C:\\Users\\Desenvolvimento\\AppData\\Local\\Programs\\Python\\Python36-32\\Scripts\\api-ms-win-core-string-l1-1-0.dll',
   'BINARY'),
  ('api-ms-win-core-rtlsupport-l1-1-0.dll',
   'C:\\Users\\Desenvolvimento\\AppData\\Local\\Programs\\Python\\Python36-32\\Scripts\\api-ms-win-core-rtlsupport-l1-1-0.dll',
   'BINARY'),
  ('api-ms-win-core-file-l1-1-0.dll',
   'C:\\Users\\Desenvolvimento\\AppData\\Local\\Programs\\Python\\Python36-32\\Scripts\\api-ms-win-core-file-l1-1-0.dll',
   'BINARY'),
  ('api-ms-win-core-processthreads-l1-1-1.dll',
   'C:\\Users\\Desenvolvimento\\AppData\\Local\\Programs\\Python\\Python36-32\\Scripts\\api-ms-win-core-processthreads-l1-1-1.dll',
   'BINARY'),
  ('api-ms-win-core-localization-l1-2-0.dll',
   'C:\\Users\\Desenvolvimento\\AppData\\Local\\Programs\\Python\\Python36-32\\Scripts\\api-ms-win-core-localization-l1-2-0.dll',
   'BINARY'),
  ('api-ms-win-core-handle-l1-1-0.dll',
   'C:\\Users\\Desenvolvimento\\AppData\\Local\\Programs\\Python\\Python36-32\\Scripts\\api-ms-win-core-handle-l1-1-0.dll',
   'BINARY'),
  ('api-ms-win-core-namedpipe-l1-1-0.dll',
   'C:\\Users\\Desenvolvimento\\AppData\\Local\\Programs\\Python\\Python36-32\\Scripts\\api-ms-win-core-namedpipe-l1-1-0.dll',
   'BINARY'),
  ('api-ms-win-core-sysinfo-l1-1-0.dll',
   'C:\\Users\\Desenvolvimento\\AppData\\Local\\Programs\\Python\\Python36-32\\Scripts\\api-ms-win-core-sysinfo-l1-1-0.dll',
   'BINARY'),
  ('api-ms-win-core-file-l1-2-0.dll',
   'C:\\Users\\Desenvolvimento\\AppData\\Local\\Programs\\Python\\Python36-32\\Scripts\\api-ms-win-core-file-l1-2-0.dll',
   'BINARY'),
  ('api-ms-win-core-processenvironment-l1-1-0.dll',
   'C:\\Users\\Desenvolvimento\\AppData\\Local\\Programs\\Python\\Python36-32\\Scripts\\api-ms-win-core-processenvironment-l1-1-0.dll',
   'BINARY'),
  ('api-ms-win-core-libraryloader-l1-1-0.dll',
   'C:\\Users\\Desenvolvimento\\AppData\\Local\\Programs\\Python\\Python36-32\\Scripts\\api-ms-win-core-libraryloader-l1-1-0.dll',
   'BINARY'),
  ('api-ms-win-core-processthreads-l1-1-0.dll',
   'C:\\Users\\Desenvolvimento\\AppData\\Local\\Programs\\Python\\Python36-32\\Scripts\\api-ms-win-core-processthreads-l1-1-0.dll',
   'BINARY'),
  ('api-ms-win-core-util-l1-1-0.dll',
   'C:\\Users\\Desenvolvimento\\AppData\\Local\\Programs\\Python\\Python36-32\\Scripts\\api-ms-win-core-util-l1-1-0.dll',
   'BINARY'),
  ('api-ms-win-core-file-l2-1-0.dll',
   'C:\\Users\\Desenvolvimento\\AppData\\Local\\Programs\\Python\\Python36-32\\Scripts\\api-ms-win-core-file-l2-1-0.dll',
   'BINARY'),
  ('api-ms-win-core-timezone-l1-1-0.dll',
   'C:\\Users\\Desenvolvimento\\AppData\\Local\\Programs\\Python\\Python36-32\\Scripts\\api-ms-win-core-timezone-l1-1-0.dll',
   'BINARY'),
  ('api-ms-win-core-profile-l1-1-0.dll',
   'C:\\Users\\Desenvolvimento\\AppData\\Local\\Programs\\Python\\Python36-32\\Scripts\\api-ms-win-core-profile-l1-1-0.dll',
   'BINARY'),
  ('api-ms-win-core-heap-l1-1-0.dll',
   'C:\\Users\\Desenvolvimento\\AppData\\Local\\Programs\\Python\\Python36-32\\Scripts\\api-ms-win-core-heap-l1-1-0.dll',
   'BINARY'),
  ('api-ms-win-core-interlocked-l1-1-0.dll',
   'C:\\Users\\Desenvolvimento\\AppData\\Local\\Programs\\Python\\Python36-32\\Scripts\\api-ms-win-core-interlocked-l1-1-0.dll',
   'BINARY'),
  ('api-ms-win-core-synch-l1-1-0.dll',
   'C:\\Users\\Desenvolvimento\\AppData\\Local\\Programs\\Python\\Python36-32\\Scripts\\api-ms-win-core-synch-l1-1-0.dll',
   'BINARY'),
  ('api-ms-win-core-synch-l1-2-0.dll',
   'C:\\Users\\Desenvolvimento\\AppData\\Local\\Programs\\Python\\Python36-32\\Scripts\\api-ms-win-core-synch-l1-2-0.dll',
   'BINARY'),
  ('api-ms-win-core-memory-l1-1-0.dll',
   'C:\\Users\\Desenvolvimento\\AppData\\Local\\Programs\\Python\\Python36-32\\Scripts\\api-ms-win-core-memory-l1-1-0.dll',
   'BINARY'),
  ('unicodedata',
   'c:\\users\\desenvolvimento\\appdata\\local\\programs\\python\\python36-32\\DLLs\\unicodedata.pyd',
   'EXTENSION'),
  ('_bz2',
   'c:\\users\\desenvolvimento\\appdata\\local\\programs\\python\\python36-32\\DLLs\\_bz2.pyd',
   'EXTENSION'),
  ('select',
   'c:\\users\\desenvolvimento\\appdata\\local\\programs\\python\\python36-32\\DLLs\\select.pyd',
   'EXTENSION'),
  ('_hashlib',
   'c:\\users\\desenvolvimento\\appdata\\local\\programs\\python\\python36-32\\DLLs\\_hashlib.pyd',
   'EXTENSION'),
  ('_socket',
   'c:\\users\\desenvolvimento\\appdata\\local\\programs\\python\\python36-32\\DLLs\\_socket.pyd',
   'EXTENSION'),
  ('_ssl',
   'c:\\users\\desenvolvimento\\appdata\\local\\programs\\python\\python36-32\\DLLs\\_ssl.pyd',
   'EXTENSION'),
  ('pyodbc',
   'c:\\users\\desenvolvimento\\appdata\\local\\programs\\python\\python36-32\\lib\\site-packages\\pyodbc.cp36-win32.pyd',
   'EXTENSION'),
  ('api-ms-win-crt-utility-l1-1-0.dll',
   'C:\\Users\\Desenvolvimento\\AppData\\Local\\Programs\\Python\\Python36-32\\Scripts\\api-ms-win-crt-utility-l1-1-0.dll',
   'BINARY'),
  ('base_library.zip',
   'C:\\Desenvolvimento\\sincronizadoralfa\\Executavel\\build\\SincronizadorAlfameta\\base_library.zip',
   'DATA'),
  ('SincronizadorAlfameta.exe.manifest',
   'C:\\Desenvolvimento\\sincronizadoralfa\\Executavel\\build\\SincronizadorAlfameta\\SincronizadorAlfameta.exe.manifest',
   'BINARY'),
  ('pyi-windows-manifest-filename SincronizadorAlfameta.exe.manifest',
   '',
   'OPTION')],
 False,
 False,
 False)
