('C:\\Desenvolvimento\\sincronizadoralfa\\Executavel\\build\\SincronizadorAlfameta\\out00-PYZ.pyz',
 [('ntpath',
   'c:\\users\\desenvolvimento\\appdata\\local\\programs\\python\\python36-32\\lib\\ntpath.py',
   'PYMODULE'),
  ('calendar',
   'c:\\users\\desenvolvimento\\appdata\\local\\programs\\python\\python36-32\\lib\\calendar.py',
   'PYMODULE'),
  ('_strptime',
   'c:\\users\\desenvolvimento\\appdata\\local\\programs\\python\\python36-32\\lib\\_strptime.py',
   'PYMODULE'),
  ('quopri',
   'c:\\users\\desenvolvimento\\appdata\\local\\programs\\python\\python36-32\\lib\\quopri.py',
   'PYMODULE'),
  ('stringprep',
   'c:\\users\\desenvolvimento\\appdata\\local\\programs\\python\\python36-32\\lib\\stringprep.py',
   'PYMODULE'),
  ('base64',
   'c:\\users\\desenvolvimento\\appdata\\local\\programs\\python\\python36-32\\lib\\base64.py',
   'PYMODULE'),
  ('_compression',
   'c:\\users\\desenvolvimento\\appdata\\local\\programs\\python\\python36-32\\lib\\_compression.py',
   'PYMODULE'),
  ('bz2',
   'c:\\users\\desenvolvimento\\appdata\\local\\programs\\python\\python36-32\\lib\\bz2.py',
   'PYMODULE'),
  ('stat',
   'c:\\users\\desenvolvimento\\appdata\\local\\programs\\python\\python36-32\\lib\\stat.py',
   'PYMODULE'),
  ('genericpath',
   'c:\\users\\desenvolvimento\\appdata\\local\\programs\\python\\python36-32\\lib\\genericpath.py',
   'PYMODULE'),
  ('posixpath',
   'c:\\users\\desenvolvimento\\appdata\\local\\programs\\python\\python36-32\\lib\\posixpath.py',
   'PYMODULE'),
  ('fnmatch',
   'c:\\users\\desenvolvimento\\appdata\\local\\programs\\python\\python36-32\\lib\\fnmatch.py',
   'PYMODULE'),
  ('_compat_pickle',
   'c:\\users\\desenvolvimento\\appdata\\local\\programs\\python\\python36-32\\lib\\_compat_pickle.py',
   'PYMODULE'),
  ('__future__',
   'c:\\users\\desenvolvimento\\appdata\\local\\programs\\python\\python36-32\\lib\\__future__.py',
   'PYMODULE'),
  ('difflib',
   'c:\\users\\desenvolvimento\\appdata\\local\\programs\\python\\python36-32\\lib\\difflib.py',
   'PYMODULE'),
  ('ast',
   'c:\\users\\desenvolvimento\\appdata\\local\\programs\\python\\python36-32\\lib\\ast.py',
   'PYMODULE'),
  ('importlib.machinery',
   'c:\\users\\desenvolvimento\\appdata\\local\\programs\\python\\python36-32\\lib\\importlib\\machinery.py',
   'PYMODULE'),
  ('importlib._bootstrap',
   'c:\\users\\desenvolvimento\\appdata\\local\\programs\\python\\python36-32\\lib\\importlib\\_bootstrap.py',
   'PYMODULE'),
  ('importlib._bootstrap_external',
   'c:\\users\\desenvolvimento\\appdata\\local\\programs\\python\\python36-32\\lib\\importlib\\_bootstrap_external.py',
   'PYMODULE'),
  ('importlib',
   'c:\\users\\desenvolvimento\\appdata\\local\\programs\\python\\python36-32\\lib\\importlib\\__init__.py',
   'PYMODULE'),
  ('inspect',
   'c:\\users\\desenvolvimento\\appdata\\local\\programs\\python\\python36-32\\lib\\inspect.py',
   'PYMODULE'),
  ('cmd',
   'c:\\users\\desenvolvimento\\appdata\\local\\programs\\python\\python36-32\\lib\\cmd.py',
   'PYMODULE'),
  ('bdb',
   'c:\\users\\desenvolvimento\\appdata\\local\\programs\\python\\python36-32\\lib\\bdb.py',
   'PYMODULE'),
  ('opcode',
   'c:\\users\\desenvolvimento\\appdata\\local\\programs\\python\\python36-32\\lib\\opcode.py',
   'PYMODULE'),
  ('dis',
   'c:\\users\\desenvolvimento\\appdata\\local\\programs\\python\\python36-32\\lib\\dis.py',
   'PYMODULE'),
  ('codeop',
   'c:\\users\\desenvolvimento\\appdata\\local\\programs\\python\\python36-32\\lib\\codeop.py',
   'PYMODULE'),
  ('code',
   'c:\\users\\desenvolvimento\\appdata\\local\\programs\\python\\python36-32\\lib\\code.py',
   'PYMODULE'),
  ('glob',
   'c:\\users\\desenvolvimento\\appdata\\local\\programs\\python\\python36-32\\lib\\glob.py',
   'PYMODULE'),
  ('shlex',
   'c:\\users\\desenvolvimento\\appdata\\local\\programs\\python\\python36-32\\lib\\shlex.py',
   'PYMODULE'),
  ('getopt',
   'c:\\users\\desenvolvimento\\appdata\\local\\programs\\python\\python36-32\\lib\\getopt.py',
   'PYMODULE'),
  ('pdb',
   'c:\\users\\desenvolvimento\\appdata\\local\\programs\\python\\python36-32\\lib\\pdb.py',
   'PYMODULE'),
  ('unittest.util',
   'c:\\users\\desenvolvimento\\appdata\\local\\programs\\python\\python36-32\\lib\\unittest\\util.py',
   'PYMODULE'),
  ('unittest.result',
   'c:\\users\\desenvolvimento\\appdata\\local\\programs\\python\\python36-32\\lib\\unittest\\result.py',
   'PYMODULE'),
  ('string',
   'c:\\users\\desenvolvimento\\appdata\\local\\programs\\python\\python36-32\\lib\\string.py',
   'PYMODULE'),
  ('logging',
   'c:\\users\\desenvolvimento\\appdata\\local\\programs\\python\\python36-32\\lib\\logging\\__init__.py',
   'PYMODULE'),
  ('unittest.case',
   'c:\\users\\desenvolvimento\\appdata\\local\\programs\\python\\python36-32\\lib\\unittest\\case.py',
   'PYMODULE'),
  ('unittest.suite',
   'c:\\users\\desenvolvimento\\appdata\\local\\programs\\python\\python36-32\\lib\\unittest\\suite.py',
   'PYMODULE'),
  ('unittest.loader',
   'c:\\users\\desenvolvimento\\appdata\\local\\programs\\python\\python36-32\\lib\\unittest\\loader.py',
   'PYMODULE'),
  ('unittest.runner',
   'c:\\users\\desenvolvimento\\appdata\\local\\programs\\python\\python36-32\\lib\\unittest\\runner.py',
   'PYMODULE'),
  ('unittest.main',
   'c:\\users\\desenvolvimento\\appdata\\local\\programs\\python\\python36-32\\lib\\unittest\\main.py',
   'PYMODULE'),
  ('unittest.signals',
   'c:\\users\\desenvolvimento\\appdata\\local\\programs\\python\\python36-32\\lib\\unittest\\signals.py',
   'PYMODULE'),
  ('unittest',
   'c:\\users\\desenvolvimento\\appdata\\local\\programs\\python\\python36-32\\lib\\unittest\\__init__.py',
   'PYMODULE'),
  ('doctest',
   'c:\\users\\desenvolvimento\\appdata\\local\\programs\\python\\python36-32\\lib\\doctest.py',
   'PYMODULE'),
  ('pprint',
   'c:\\users\\desenvolvimento\\appdata\\local\\programs\\python\\python36-32\\lib\\pprint.py',
   'PYMODULE'),
  ('pickle',
   'c:\\users\\desenvolvimento\\appdata\\local\\programs\\python\\python36-32\\lib\\pickle.py',
   'PYMODULE'),
  ('tracemalloc',
   'c:\\users\\desenvolvimento\\appdata\\local\\programs\\python\\python36-32\\lib\\tracemalloc.py',
   'PYMODULE'),
  ('warnings',
   'c:\\users\\desenvolvimento\\appdata\\local\\programs\\python\\python36-32\\lib\\warnings.py',
   'PYMODULE'),
  ('enum',
   'c:\\users\\desenvolvimento\\appdata\\local\\programs\\python\\python36-32\\lib\\enum.py',
   'PYMODULE'),
  ('signal',
   'c:\\users\\desenvolvimento\\appdata\\local\\programs\\python\\python36-32\\lib\\signal.py',
   'PYMODULE'),
  ('contextlib',
   'c:\\users\\desenvolvimento\\appdata\\local\\programs\\python\\python36-32\\lib\\contextlib.py',
   'PYMODULE'),
  ('_threading_local',
   'c:\\users\\desenvolvimento\\appdata\\local\\programs\\python\\python36-32\\lib\\_threading_local.py',
   'PYMODULE'),
  ('threading',
   'c:\\users\\desenvolvimento\\appdata\\local\\programs\\python\\python36-32\\lib\\threading.py',
   'PYMODULE'),
  ('selectors',
   'c:\\users\\desenvolvimento\\appdata\\local\\programs\\python\\python36-32\\lib\\selectors.py',
   'PYMODULE'),
  ('_dummy_thread',
   'c:\\users\\desenvolvimento\\appdata\\local\\programs\\python\\python36-32\\lib\\_dummy_thread.py',
   'PYMODULE'),
  ('dummy_threading',
   'c:\\users\\desenvolvimento\\appdata\\local\\programs\\python\\python36-32\\lib\\dummy_threading.py',
   'PYMODULE'),
  ('subprocess',
   'c:\\users\\desenvolvimento\\appdata\\local\\programs\\python\\python36-32\\lib\\subprocess.py',
   'PYMODULE'),
  ('token',
   'c:\\users\\desenvolvimento\\appdata\\local\\programs\\python\\python36-32\\lib\\token.py',
   'PYMODULE'),
  ('copy',
   'c:\\users\\desenvolvimento\\appdata\\local\\programs\\python\\python36-32\\lib\\copy.py',
   'PYMODULE'),
  ('textwrap',
   'c:\\users\\desenvolvimento\\appdata\\local\\programs\\python\\python36-32\\lib\\textwrap.py',
   'PYMODULE'),
  ('struct',
   'c:\\users\\desenvolvimento\\appdata\\local\\programs\\python\\python36-32\\lib\\struct.py',
   'PYMODULE'),
  ('gettext',
   'c:\\users\\desenvolvimento\\appdata\\local\\programs\\python\\python36-32\\lib\\gettext.py',
   'PYMODULE'),
  ('argparse',
   'c:\\users\\desenvolvimento\\appdata\\local\\programs\\python\\python36-32\\lib\\argparse.py',
   'PYMODULE'),
  ('tokenize',
   'c:\\users\\desenvolvimento\\appdata\\local\\programs\\python\\python36-32\\lib\\tokenize.py',
   'PYMODULE'),
  ('MandaEmails',
   'C:\\Desenvolvimento\\SincronizadorAlfa\\MandaEmails.py',
   'PYMODULE'),
  ('email.mime.multipart',
   'c:\\users\\desenvolvimento\\appdata\\local\\programs\\python\\python36-32\\lib\\email\\mime\\multipart.py',
   'PYMODULE'),
  ('email.mime',
   'c:\\users\\desenvolvimento\\appdata\\local\\programs\\python\\python36-32\\lib\\email\\mime\\__init__.py',
   'PYMODULE'),
  ('email',
   'c:\\users\\desenvolvimento\\appdata\\local\\programs\\python\\python36-32\\lib\\email\\__init__.py',
   'PYMODULE'),
  ('email.parser',
   'c:\\users\\desenvolvimento\\appdata\\local\\programs\\python\\python36-32\\lib\\email\\parser.py',
   'PYMODULE'),
  ('email._policybase',
   'c:\\users\\desenvolvimento\\appdata\\local\\programs\\python\\python36-32\\lib\\email\\_policybase.py',
   'PYMODULE'),
  ('email.utils',
   'c:\\users\\desenvolvimento\\appdata\\local\\programs\\python\\python36-32\\lib\\email\\utils.py',
   'PYMODULE'),
  ('email._parseaddr',
   'c:\\users\\desenvolvimento\\appdata\\local\\programs\\python\\python36-32\\lib\\email\\_parseaddr.py',
   'PYMODULE'),
  ('urllib.parse',
   'c:\\users\\desenvolvimento\\appdata\\local\\programs\\python\\python36-32\\lib\\urllib\\parse.py',
   'PYMODULE'),
  ('urllib',
   'c:\\users\\desenvolvimento\\appdata\\local\\programs\\python\\python36-32\\lib\\urllib\\__init__.py',
   'PYMODULE'),
  ('random',
   'c:\\users\\desenvolvimento\\appdata\\local\\programs\\python\\python36-32\\lib\\random.py',
   'PYMODULE'),
  ('bisect',
   'c:\\users\\desenvolvimento\\appdata\\local\\programs\\python\\python36-32\\lib\\bisect.py',
   'PYMODULE'),
  ('hashlib',
   'c:\\users\\desenvolvimento\\appdata\\local\\programs\\python\\python36-32\\lib\\hashlib.py',
   'PYMODULE'),
  ('email.feedparser',
   'c:\\users\\desenvolvimento\\appdata\\local\\programs\\python\\python36-32\\lib\\email\\feedparser.py',
   'PYMODULE'),
  ('email.message',
   'c:\\users\\desenvolvimento\\appdata\\local\\programs\\python\\python36-32\\lib\\email\\message.py',
   'PYMODULE'),
  ('email.policy',
   'c:\\users\\desenvolvimento\\appdata\\local\\programs\\python\\python36-32\\lib\\email\\policy.py',
   'PYMODULE'),
  ('email.contentmanager',
   'c:\\users\\desenvolvimento\\appdata\\local\\programs\\python\\python36-32\\lib\\email\\contentmanager.py',
   'PYMODULE'),
  ('email.quoprimime',
   'c:\\users\\desenvolvimento\\appdata\\local\\programs\\python\\python36-32\\lib\\email\\quoprimime.py',
   'PYMODULE'),
  ('email.headerregistry',
   'c:\\users\\desenvolvimento\\appdata\\local\\programs\\python\\python36-32\\lib\\email\\headerregistry.py',
   'PYMODULE'),
  ('email.iterators',
   'c:\\users\\desenvolvimento\\appdata\\local\\programs\\python\\python36-32\\lib\\email\\iterators.py',
   'PYMODULE'),
  ('email.generator',
   'c:\\users\\desenvolvimento\\appdata\\local\\programs\\python\\python36-32\\lib\\email\\generator.py',
   'PYMODULE'),
  ('email._encoded_words',
   'c:\\users\\desenvolvimento\\appdata\\local\\programs\\python\\python36-32\\lib\\email\\_encoded_words.py',
   'PYMODULE'),
  ('uu',
   'c:\\users\\desenvolvimento\\appdata\\local\\programs\\python\\python36-32\\lib\\uu.py',
   'PYMODULE'),
  ('optparse',
   'c:\\users\\desenvolvimento\\appdata\\local\\programs\\python\\python36-32\\lib\\optparse.py',
   'PYMODULE'),
  ('email._header_value_parser',
   'c:\\users\\desenvolvimento\\appdata\\local\\programs\\python\\python36-32\\lib\\email\\_header_value_parser.py',
   'PYMODULE'),
  ('email.header',
   'c:\\users\\desenvolvimento\\appdata\\local\\programs\\python\\python36-32\\lib\\email\\header.py',
   'PYMODULE'),
  ('email.base64mime',
   'c:\\users\\desenvolvimento\\appdata\\local\\programs\\python\\python36-32\\lib\\email\\base64mime.py',
   'PYMODULE'),
  ('email.charset',
   'c:\\users\\desenvolvimento\\appdata\\local\\programs\\python\\python36-32\\lib\\email\\charset.py',
   'PYMODULE'),
  ('email.encoders',
   'c:\\users\\desenvolvimento\\appdata\\local\\programs\\python\\python36-32\\lib\\email\\encoders.py',
   'PYMODULE'),
  ('email.errors',
   'c:\\users\\desenvolvimento\\appdata\\local\\programs\\python\\python36-32\\lib\\email\\errors.py',
   'PYMODULE'),
  ('email.mime.base',
   'c:\\users\\desenvolvimento\\appdata\\local\\programs\\python\\python36-32\\lib\\email\\mime\\base.py',
   'PYMODULE'),
  ('email.mime.text',
   'c:\\users\\desenvolvimento\\appdata\\local\\programs\\python\\python36-32\\lib\\email\\mime\\text.py',
   'PYMODULE'),
  ('email.mime.nonmultipart',
   'c:\\users\\desenvolvimento\\appdata\\local\\programs\\python\\python36-32\\lib\\email\\mime\\nonmultipart.py',
   'PYMODULE'),
  ('socket',
   'c:\\users\\desenvolvimento\\appdata\\local\\programs\\python\\python36-32\\lib\\socket.py',
   'PYMODULE'),
  ('smtplib',
   'c:\\users\\desenvolvimento\\appdata\\local\\programs\\python\\python36-32\\lib\\smtplib.py',
   'PYMODULE'),
  ('ssl',
   'c:\\users\\desenvolvimento\\appdata\\local\\programs\\python\\python36-32\\lib\\ssl.py',
   'PYMODULE'),
  ('ipaddress',
   'c:\\users\\desenvolvimento\\appdata\\local\\programs\\python\\python36-32\\lib\\ipaddress.py',
   'PYMODULE'),
  ('hmac',
   'c:\\users\\desenvolvimento\\appdata\\local\\programs\\python\\python36-32\\lib\\hmac.py',
   'PYMODULE'),
  ('GeraLogs',
   'C:\\Desenvolvimento\\SincronizadorAlfa\\GeraLogs.py',
   'PYMODULE'),
  ('LeArquivoIni',
   'C:\\Desenvolvimento\\SincronizadorAlfa\\LeArquivoIni.py',
   'PYMODULE'),
  ('configparser',
   'c:\\users\\desenvolvimento\\appdata\\local\\programs\\python\\python36-32\\lib\\configparser.py',
   'PYMODULE'),
  ('os',
   'c:\\users\\desenvolvimento\\appdata\\local\\programs\\python\\python36-32\\lib\\os.py',
   'PYMODULE'),
  ('datetime',
   'c:\\users\\desenvolvimento\\appdata\\local\\programs\\python\\python36-32\\lib\\datetime.py',
   'PYMODULE')])
